^C:\USERS\CASGRANT\DOCUMENTS\COMPUTER_AND_LANGUAGE\COMPUTER_AND_LANGUAGE\COMMANDSHELL.CPP|C:\USERS\CASGRANT\DOCUMENTS\COMPUTER_AND_LANGUAGE\COMPUTER_AND_LANGUAGE\COMPUTER_MEMORY.CPP|C:\USERS\CASGRANT\DOCUMENTS\COMPUTER_AND_LANGUAGE\COMPUTER_AND_LANGUAGE\SOURCE.CPP
C:\USERS\CASGRANT\DOCUMENTS\COMPUTER_AND_LANGUAGE\COMPUTER_AND_LANGUAGE\DEBUG\VC142.PDB
C:\USERS\CASGRANT\DOCUMENTS\COMPUTER_AND_LANGUAGE\COMPUTER_AND_LANGUAGE\DEBUG\VC142.IDB
C:\USERS\CASGRANT\DOCUMENTS\COMPUTER_AND_LANGUAGE\COMPUTER_AND_LANGUAGE\DEBUG\SOURCE.OBJ
C:\USERS\CASGRANT\DOCUMENTS\COMPUTER_AND_LANGUAGE\COMPUTER_AND_LANGUAGE\DEBUG\COMPUTER_MEMORY.OBJ
C:\USERS\CASGRANT\DOCUMENTS\COMPUTER_AND_LANGUAGE\COMPUTER_AND_LANGUAGE\DEBUG\COMMANDSHELL.OBJ
^C:\USERS\CASGRANT\DOCUMENTS\COMPUTER_AND_LANGUAGE\COMPUTER_AND_LANGUAGE\COMPUTER_MEMORY.CPP
C:\USERS\CASGRANT\DOCUMENTS\COMPUTER_AND_LANGUAGE\COMPUTER_AND_LANGUAGE\DEBUG\VC142.PDB
^C:\USERS\CASGRANT\DOCUMENTS\COMPUTER_AND_LANGUAGE\COMPUTER_AND_LANGUAGE\SOURCE.CPP
C:\USERS\CASGRANT\DOCUMENTS\COMPUTER_AND_LANGUAGE\COMPUTER_AND_LANGUAGE\DEBUG\VC142.PDB
^C:\USERS\CASGRANT\DOCUMENTS\COMPUTER_AND_LANGUAGE\COMPUTER_AND_LANGUAGE\COMMANDSHELL.CPP
C:\USERS\CASGRANT\DOCUMENTS\COMPUTER_AND_LANGUAGE\COMPUTER_AND_LANGUAGE\DEBUG\VC142.PDB
C:\USERS\CASGRANT\DOCUMENTS\COMPUTER_AND_LANGUAGE\COMPUTER_AND_LANGUAGE\DEBUG\VC142.IDB
C:\USERS\CASGRANT\DOCUMENTS\COMPUTER_AND_LANGUAGE\COMPUTER_AND_LANGUAGE\DEBUG\COMMANDSHELL.OBJ
