^C:\USERS\CASGRANT\DOCUMENTS\COMPUTER_AND_LANGUAGE\COMPUTER_AND_LANGUAGE\DEBUG\COMMANDSHELL.OBJ|C:\USERS\CASGRANT\DOCUMENTS\COMPUTER_AND_LANGUAGE\COMPUTER_AND_LANGUAGE\DEBUG\COMPUTER_MEMORY.OBJ|C:\USERS\CASGRANT\DOCUMENTS\COMPUTER_AND_LANGUAGE\COMPUTER_AND_LANGUAGE\DEBUG\SOURCE.OBJ
/OUT:"C:\USERS\CASGRANT\DOCUMENTS\COMPUTER_AND_LANGUAGE\COMPUTER_AND_LANGUAGE\DEBUG\COMPUTER_AND_LANGUAGE.EXE" /INCREMENTAL /NOLOGO KERNEL32.LIB USER32.LIB GDI32.LIB WINSPOOL.LIB COMDLG32.LIB ADVAPI32.LIB SHELL32.LIB OLE32.LIB OLEAUT32.LIB UUID.LIB ODBC32.LIB ODBCCP32.LIB /MANIFEST /MANIFESTUAC:"level='asInvoker' uiAccess='false'" /manifest:embed /DEBUG:FASTLINK /PDB:"C:\USERS\CASGRANT\DOCUMENTS\COMPUTER_AND_LANGUAGE\COMPUTER_AND_LANGUAGE\DEBUG\COMPUTER_AND_LANGUAGE.PDB" /SUBSYSTEM:CONSOLE /TLBID:1 /DYNAMICBASE /NXCOMPAT /IMPLIB:"C:\USERS\CASGRANT\DOCUMENTS\COMPUTER_AND_LANGUAGE\COMPUTER_AND_LANGUAGE\DEBUG\COMPUTER_AND_LANGUAGE.LIB" /MACHINE:X86 DEBUG\COMMANDSHELL.OBJDEBUG\COMPUTER_MEMORY.OBJDEBUG\SOURCE.OBJ
^C:\USERS\CASGRANT\DOCUMENTS\COMPUTER & LANGUAGE\COMPUTER_AND_LANGUAGE\DEBUG\COMMANDSHELL.OBJ|C:\USERS\CASGRANT\DOCUMENTS\COMPUTER & LANGUAGE\COMPUTER_AND_LANGUAGE\DEBUG\COMPUTER_MEMORY.OBJ|C:\USERS\CASGRANT\DOCUMENTS\COMPUTER & LANGUAGE\COMPUTER_AND_LANGUAGE\DEBUG\SOURCE.OBJ
/OUT:"C:\USERS\CASGRANT\DOCUMENTS\COMPUTER & LANGUAGE\COMPUTER_AND_LANGUAGE\DEBUG\COMPUTER_AND_LANGUAGE.EXE" /INCREMENTAL /NOLOGO KERNEL32.LIB USER32.LIB GDI32.LIB WINSPOOL.LIB COMDLG32.LIB ADVAPI32.LIB SHELL32.LIB OLE32.LIB OLEAUT32.LIB UUID.LIB ODBC32.LIB ODBCCP32.LIB /MANIFEST /MANIFESTUAC:"level='asInvoker' uiAccess='false'" /manifest:embed /DEBUG:FASTLINK /PDB:"C:\USERS\CASGRANT\DOCUMENTS\COMPUTER & LANGUAGE\COMPUTER_AND_LANGUAGE\DEBUG\COMPUTER_AND_LANGUAGE.PDB" /SUBSYSTEM:CONSOLE /TLBID:1 /DYNAMICBASE /NXCOMPAT /IMPLIB:"C:\USERS\CASGRANT\DOCUMENTS\COMPUTER & LANGUAGE\COMPUTER_AND_LANGUAGE\DEBUG\COMPUTER_AND_LANGUAGE.LIB" /MACHINE:X86 DEBUG\COMMANDSHELL.OBJDEBUG\COMPUTER_MEMORY.OBJDEBUG\SOURCE.OBJ
