^C:\USERS\CASGRANT\DOCUMENTS\COMPUTER_AND_LANGUAGE\COMPUTER_AND_LANGUAGE\DEBUG\COMMANDSHELL.OBJ|C:\USERS\CASGRANT\DOCUMENTS\COMPUTER_AND_LANGUAGE\COMPUTER_AND_LANGUAGE\DEBUG\COMPUTER_MEMORY.OBJ|C:\USERS\CASGRANT\DOCUMENTS\COMPUTER_AND_LANGUAGE\COMPUTER_AND_LANGUAGE\DEBUG\SOURCE.OBJ
C:\USERS\CASGRANT\DOCUMENTS\COMPUTER_AND_LANGUAGE\COMPUTER_AND_LANGUAGE\DEBUG\COMPUTER_AND_LANGUAGE.EXE
C:\USERS\CASGRANT\DOCUMENTS\COMPUTER_AND_LANGUAGE\COMPUTER_AND_LANGUAGE\DEBUG\COMPUTER_AND_LANGUAGE.ILK
C:\USERS\CASGRANT\DOCUMENTS\COMPUTER_AND_LANGUAGE\COMPUTER_AND_LANGUAGE\DEBUG\COMPUTER_AND_LANGUAGE.PDB
